hosts.ini  инвентори


[webservers]
localhost ansible_host=192.168.11.51 ansible_connection=ssh ansible_ssh_user=ndr ansible_ssh_pass=dshdbukfp12; password=5e884898da28047151d0e56f8dc6292773603d0d6aabbdd62a11ef721d1542d8


[all:vars]
ansible_python_interpreter=/usr/bin/python3


prepare.yaml 

---
- name: Prepare folder
  hosts: webservers
  become: true
  become_user: "ndr"
  roles:
    - role: newrole

======================================================================
таска

---
# tasks file for newrole
- name: ansible create directory with mode setting example
  file:
    path: /home/ndr/directory
    state: directory
#    mode: "u=rw,g=wx,o=rwx"
- name: ansible create file
  file:
    path: "/home/ndr/directory/test.txt"
    state: touch

- name: Ensure group test exists
  ansible.builtin.group:
    name: test
    gid: 2011
    state: present

- name: Add the user
  ansible.builtin.user:
    name: test
    shell: /bin/bash
    groups: test, sudo
    password: password
    append: yes
====================================================================


ansible-playbook prepare.yml -kK
SSH password:
BECOME password[defaults to SSH password]:

PLAY [Prepare folder] ***********************************************************

TASK [Gathering Facts] **********************************************************
ok: [localhost]

TASK [newrole : ansible create directory with mode setting example] *************
changed: [localhost]

TASK [newrole : ansible create file] ********************************************
changed: [localhost]

PLAY RECAP **********************************************************************
localhost                  : ok=3    changed=2    unreachable=0    failed=0    sk                                                                                                                                                            ipped=0    rescued=0    ignored=0

root@ansible:/etc/ansible# mc

root@ansible:/etc/ansible# ansible-playbook prepare.yml -kK
SSH password:
BECOME password[defaults to SSH password]:

PLAY [Prepare folder] ***********************************************************************************************************************************************************************************************************************

TASK [Gathering Facts] **********************************************************************************************************************************************************************************************************************
ok: [localhost]

TASK [newrole : ansible create directory with mode setting example] *************************************************************************************************************************************************************************
ok: [localhost]

TASK [newrole : ansible create file] ********************************************************************************************************************************************************************************************************
changed: [localhost]

TASK [newrole : Ensure group test exists] ***************************************************************************************************************************************************************************************************
ok: [localhost]

TASK [newrole : Add the user] ***************************************************************************************************************************************************************************************************************
[WARNING]: The input ******** appears not to have been hashed. The '********' argument must be encrypted for this module to work properly.
changed: [localhost]

PLAY RECAP **********************************************************************************************************************************************************************************************************************************
localhost                  : ok=5    changed=2    unreachable=0    failed=0    skipped=0    rescued=0    ignored=0







